{
  "schemaVersion": 1,
  "id": "fabrikmc-igui",
  "version": "${version}",

  "name": "FabrikMC Inventory GUI",
  "description": "FabrikMC is an API for using FabricMC with Kotlin.",
  "authors": ["bluefireoly"],

  "mixins": ["fabrikmc-igui.mixins.json"],

  "depends": {
    "fabric": "*",
    "fabric-language-kotlin": "*",
    "minecraft": "1.16.x",
    "fabrikmc-core": "*"
  }
}
